{
  "name": "slick",
  "repo": "kenwheeler/slick",
  "description": "the last carousel you'll ever need",
  "version": "1.6.0",
  "keywords": [
    "ui",
    "jquery",
    "carousel",
    "responsive",
    "slider"
  ],
  "dependencies": {
    "component/jquery": "*"
  },
  "development": {},
  "scripts": {
    "slick/slick.js": "slick.js"
  },
  "styles": {
    "slick/slick.css": "slick.css",
    "slick/slick-theme.css": "slick-theme.css"
  }
}
